<?xml version="1.0" encoding="UTF-8" standalone="no"?>
<svg width="32px" height="32px" viewBox="0 0 32 32" version="1.1" xmlns="http://www.w3.org/2000/svg" xmlns:xlink="http://www.w3.org/1999/xlink">
    <!-- Generator: Sketch 3.8.3 (29802) - http://www.bohemiancoding.com/sketch -->
    <title>Facebook</title>
    <desc>Created with Sketch.</desc>
    <defs></defs>
    <g id="Orientation" stroke="none" stroke-width="1" fill="none" fill-rule="evenodd">
        <g id="Orientation---Home---Mobile-Portrait" transform="translate(-67.000000, -950.000000)" fill="#4868AA">
            <g id="row" transform="translate(0.000000, 886.000000)">
                <g id="social" transform="translate(67.000000, 64.000000)">
                    <path d="M16.0021072,0 C7.16449361,0 0,7.16449361 0,16.0021072 C0,24.8355064 7.16449361,32 16.0021072,32 C24.8355064,32 32,24.8355064 32,16.0021072 C32,7.16449361 24.8355064,0 16.0021072,0 L16.0021072,0 Z M23.7861188,22.7662321 C23.7861188,23.2382458 23.5543264,23.7401817 23.0865271,23.7401817 L19.15027,23.7401817 L19.15027,17.8400105 L21.1521138,17.8400105 L21.4555512,15.3113657 L19.15027,15.3113657 L19.15027,13.8021862 C19.15027,13.1278809 19.3314895,12.7827209 20.3008034,12.7827209 L21.6789148,12.7827209 L21.6789148,10.5781641 C21.257474,10.5486632 20.6042407,10.4854471 19.7487159,10.4854471 C17.9702357,10.4854471 16.6216252,11.5727644 16.6216252,13.5703938 L16.6216252,15.3113657 L14.5144212,15.3113657 L14.5144212,17.8400105 L16.6216252,17.8400105 L16.6216252,23.7401817 L9.32227051,23.7401817 C8.85025682,23.7401817 8.61424997,23.2382458 8.61424997,22.7662321 L8.61424997,9.0019755 C8.61424997,8.52996181 8.85025682,8.14687212 9.32227051,8.14687212 L23.0865271,8.14687212 C23.5543264,8.14687212 23.7861188,8.52996181 23.7861188,9.0019755 L23.7861188,22.7662321 L23.7861188,22.7662321 Z" id="Facebook"></path>
                </g>
            </g>
        </g>
    </g>
</svg>